Gaze Following Variable Validation
…
d$age_group <- cut(d$age_mo, c(3,6,9,12,15), 
                   labels = c("3-6 mo","6-9 mo","9-12 mo","12-15 mo"), 
                   include.lowest = TRUE)
max(d$age_mo, na.rm=TRUE)

## [1] 16.22998

d %>%
  filter(is.na(age_group)) %>%
  select(lab, subid, age_mo, age_group) %>%
  unique()

## # A tibble: 23 x 4
##    lab             subid              age_mo age_group
##    <chr>           <chr>               <dbl> <fct>    
##  1 babylab-brookes babylab-brookesg6    15.2 <NA>     
##  2 babylab-brookes babylab-brookesg9    15.3 <NA>     
##  3 babylab-brookes babylab-brookesg10   15.4 <NA>     
##  4 babylab-brookes babylab-brookesg11   15.1 <NA>     
##  5 babylab-brookes babylab-brookesg17   15.1 <NA>     
##  6 babylab-brookes babylab-brookesg75   15.2 <NA>     
##  7 babylab-brookes babylab-brookesg91   15.1 <NA>     
##  8 elp-georgetown  elp-georgetown8711   15.2 <NA>     
##  9 elp-georgetown  elp-georgetown8869   15.3 <NA>     
## 10 elp-georgetown  elp-georgetown8719   15.0 <NA>     
## #  with 13 more rows
…
